…
<img src="07-logit-2_files/figure-html/unnamed-chunk-43-1.png" width="50%" style="display: block; margin: auto;" />


```r
x <- pmin(rexp(500,1/30),100)
probs <- p_1(x)
y <- ifelse(rbinom(length(x), 1, probs)==1 ,1, 2)
datos <- data_frame(x = x, p_1 = probs, y = factor(y))
datos %>% select(x, y) 
#> # A tibble: 500 x 2
#>       x y    
#>   <dbl> <fct>
#> 1  4.74 1    
#> 2 60.1  2    
#> 3 20.6  1    
#> 4 62.6  1    
#> 5 15.0  1    
#> 6 63.7  1    
#> # ... with 494 more rows
```
…
<img src="07-logit-2_files/figure-html/unnamed-chunk-52-1.png" width="50%" style="display: block; margin: auto;" />


```r
diabetes_coef <- data_frame(variable = c('Intercept',colnames(x)), coef = iteraciones[1000,])
diabetes_coef
#> # A tibble: 8 x 2
#>   variable     coef
#>   <chr>       <dbl>
#> 1 Intercept -0.956 
#> 2 age        0.452 
#> 3 bmi        0.513 
#> 4 bp        -0.0547
#> 5 glu        1.02  
#> 6 npreg      0.347 
#> # ... with 2 more rows
```
…
