Estadística Aplicada III
…
En este caso particular tenemos unas variables que están en escala 1-5 y otras 1-10. Esta variabilidad distinta sólo es escala de las respuestas, así que normalizamos dividiendo cada pregunta por su máximo (dividir entre 10 las preguntas en escala de 1 a 10 y entre 5 las de 1 a 5. Podríamos también estandarizar):

dat_2 <- dat %>% gather(var, valor, gvjbevn:sbcwkfm) %>% 
  left_join(nombres) %>%
  select(-var) %>%
  group_by(nombre) %>%
  mutate(valor_escalado = valor/max(valor, na.rm=T)) %>%
  select(-valor) %>%
  spread(nombre, valor_escalado)
#> Joining, by = "var"
dat_3 <- filter(dat_2, apply(dat_2, 1, function(x){!any(is.na(x))}))
dat_3
#> # A tibble: 2,108 x 10
#>     idno ausencia_cuidar_enfer… ayuda_padres_trabajad… beneficios_fam_tra…
#>    <int>                  <dbl>                  <dbl>               <dbl>
#> 1 110701                    0.4                    0.5                 0.4
#> 2 110702                    1                      0.5                 0.8
#> 3 110703                    1                      0.8                 0.6
#> 4 110704                    0.6                    0.8                 0.4
#> 5 110705                    0.8                    0.9                 0.4
#> 6 110708                    0.7                    0.7                 0.4
#> # ... with 2,102 more rows, and 6 more variables:
#> #   beneficios_igualdad <dbl>, beneficios_pobreza <dbl>,
#> #   cuidados_salud_enfermos <dbl>, garantizar_nivel_desempleados <dbl>,
#> #   garantizar_nivel_mayores <dbl>, trabajo_a_todos <dbl>
…
Ahora veamos cómo resumir grupos para entender qué tipo de casos están en cada uno de ellos. Consideramos las variables originales escaladas:

cluster_df <- data.frame(idno = dat_3$idno, cluster = sol_cl$cluster)
dat_4 <- dat_3 %>% 
  gather(variable, valor, ausencia_cuidar_enfermos:trabajo_a_todos) %>%
  left_join(cluster_df)

Y resumimos dentro de cada grupo cada una de las variables. Elecciones populares son la media y el error estándar de la media (desviación estándar dividida entre la raíz del número de casos):

resumen_1 <- dat_4 %>% group_by(cluster, variable) %>%
  summarise(media = mean(valor), ee = sd(valor)/sqrt(length(valor)))
resumen_1
#> # A tibble: 18 x 4
#> # Groups:   cluster [?]
#>   cluster variable                  media      ee
#>     <int> <chr>                     <dbl>   <dbl>
#> 1       1 ausencia_cuidar_enfermos  0.816 0.00476
#> 2       1 ayuda_padres_trabajadores 0.804 0.00475
#> 3       1 beneficios_fam_trabajo    0.490 0.00474
#> 4       1 beneficios_igualdad       0.554 0.00556
#> 5       1 beneficios_pobreza        0.506 0.00528
#> 6       1 cuidados_salud_enfermos   0.928 0.00323
#> # ... with 12 more rows
…
