Estadística Aplicada III
…
En el código de arriba utilizamos las funciones group_by, filter y mutate que estudiaremos más adelante.

Otro ejemplo,

billboard <- tbl_df(read.csv("datos/billboard.csv", stringsAsFactors = FALSE))
billboard

## # A tibble: 317 x 81
##     year artist   track   time  date.entered   wk1   wk2   wk3   wk4   wk5
##    <int> <chr>    <chr>   <chr> <chr>        <int> <int> <int> <int> <int>
##  1  2000 2 Pac    Baby D… 4:22  2000-02-26      87    82    72    77    87
##  2  2000 2Ge+her  The Ha… 3:15  2000-09-02      91    87    92    NA    NA
##  3  2000 3 Doors… Krypto… 3:53  2000-04-08      81    70    68    67    66
##  4  2000 3 Doors… Loser   4:24  2000-10-21      76    76    72    69    67
##  5  2000 504 Boyz Wobble… 3:35  2000-04-15      57    34    25    17    17
##  6  2000 98^0     Give M… 3:24  2000-08-19      51    39    34    26    26
##  7  2000 A*Teens  Dancin… 3:44  2000-07-08      97    97    96    95   100
##  8  2000 Aaliyah  I Don'… 4:15  2000-01-29      84    62    51    41    38
##  9  2000 Aaliyah  Try Ag… 4:03  2000-03-18      59    53    38    28    21
## 10  2000 Adams, … Open M… 5:30  2000-08-26      76    76    74    69    68
## # ... with 307 more rows, and 71 more variables: wk6 <int>, wk7 <int>,
## #   wk8 <int>, wk9 <int>, wk10 <int>, wk11 <int>, wk12 <int>, wk13 <int>,
## #   wk14 <int>, wk15 <int>, wk16 <int>, wk17 <int>, wk18 <int>,
## #   wk19 <int>, wk20 <int>, wk21 <int>, wk22 <int>, wk23 <int>,
## #   wk24 <int>, wk25 <int>, wk26 <int>, wk27 <int>, wk28 <int>,
## #   wk29 <int>, wk30 <int>, wk31 <int>, wk32 <int>, wk33 <int>,
## #   wk34 <int>, wk35 <int>, wk36 <int>, wk37 <int>, wk38 <int>,
## #   wk39 <int>, wk40 <int>, wk41 <int>, wk42 <int>, wk43 <int>,
## #   wk44 <int>, wk45 <int>, wk46 <int>, wk47 <int>, wk48 <int>,
## #   wk49 <int>, wk50 <int>, wk51 <int>, wk52 <int>, wk53 <int>,
## #   wk54 <int>, wk55 <int>, wk56 <int>, wk57 <int>, wk58 <int>,
## #   wk59 <int>, wk60 <int>, wk61 <int>, wk62 <int>, wk63 <int>,
## #   wk64 <int>, wk65 <int>, wk66 <lgl>, wk67 <lgl>, wk68 <lgl>,
## #   wk69 <lgl>, wk70 <lgl>, wk71 <lgl>, wk72 <lgl>, wk73 <lgl>,
## #   wk74 <lgl>, wk75 <lgl>, wk76 <lgl>

Queremos apilar las semanas de manera que sea una sola columna (nuevamente alargamos los datos):

library(tidyr)
billboard_long <- gather(billboard, week, rank, wk1:wk76,na.rm=TRUE)
billboard_long

## # A tibble: 5,307 x 7
##     year artist         track               time  date.entered week   rank
##  * <int> <chr>          <chr>               <chr> <chr>        <chr> <int>
##  1  2000 2 Pac          Baby Don't Cry (Ke… 4:22  2000-02-26   wk1      87
##  2  2000 2Ge+her        The Hardest Part O… 3:15  2000-09-02   wk1      91
##  3  2000 3 Doors Down   Kryptonite          3:53  2000-04-08   wk1      81
##  4  2000 3 Doors Down   Loser               4:24  2000-10-21   wk1      76
##  5  2000 504 Boyz       Wobble Wobble       3:35  2000-04-15   wk1      57
##  6  2000 98^0           Give Me Just One N… 3:24  2000-08-19   wk1      51
##  7  2000 A*Teens        Dancing Queen       3:44  2000-07-08   wk1      97
##  8  2000 Aaliyah        I Don't Wanna       4:15  2000-01-29   wk1      84
##  9  2000 Aaliyah        Try Again           4:03  2000-03-18   wk1      59
## 10  2000 Adams, Yolanda Open My Heart       5:30  2000-08-26   wk1      76
## # ... with 5,297 more rows

La instrucción na.rm = TRUE se utiliza para eliminar los valores faltantes en las columnas wk1 a wk76. Realizamos una limpieza adicional creando mejores variables de fecha.

billboard_tidy <- billboard_long %>%
  mutate(
    week = extract_numeric(week),
    date = as.Date(date.entered) + 7 * (week - 1)) %>%
  select(-date.entered)

## extract_numeric() is deprecated: please use readr::parse_number() instead

billboard_tidy

## # A tibble: 5,307 x 7
##     year artist         track                 time   week  rank date      
##    <int> <chr>          <chr>                 <chr> <dbl> <int> <date>    
##  1  2000 2 Pac          Baby Don't Cry (Keep… 4:22   1.00    87 2000-02-26
##  2  2000 2Ge+her        The Hardest Part Of … 3:15   1.00    91 2000-09-02
##  3  2000 3 Doors Down   Kryptonite            3:53   1.00    81 2000-04-08
##  4  2000 3 Doors Down   Loser                 4:24   1.00    76 2000-10-21
##  5  2000 504 Boyz       Wobble Wobble         3:35   1.00    57 2000-04-15
##  6  2000 98^0           Give Me Just One Nig… 3:24   1.00    51 2000-08-19
##  7  2000 A*Teens        Dancing Queen         3:44   1.00    97 2000-07-08
##  8  2000 Aaliyah        I Don't Wanna         4:15   1.00    84 2000-01-29
##  9  2000 Aaliyah        Try Again             4:03   1.00    59 2000-03-18
## 10  2000 Adams, Yolanda Open My Heart         5:30   1.00    76 2000-08-26
## # ... with 5,297 more rows
…
GM
1999
Gambia (Islamic Republic of the)
new_sp_f
65
13

3. Variables almacenadas en filas y columnas

El problema más difícil es cuando las variables están tanto en filas como encolumnas, veamos una base de datos de clima en Cuernavaca. ¿Cuáles son las variables en estos datos?

clima <- tbl_df(read.delim("datos/clima.txt", stringsAsFactors=FALSE))
clima

## # A tibble: 22 x 35
##    id         year month element    d1    d2    d3    d4    d5    d6    d7
##    <chr>     <int> <int> <chr>   <int> <int> <int> <int> <int> <int> <int>
##  1 MX000017…  2010     1 TMAX       NA    NA    NA    NA    NA    NA    NA
##  2 MX000017…  2010     1 TMIN       NA    NA    NA    NA    NA    NA    NA
##  3 MX000017…  2010     2 TMAX       NA   273   241    NA    NA    NA    NA
##  4 MX000017…  2010     2 TMIN       NA   144   144    NA    NA    NA    NA
##  5 MX000017…  2010     3 TMAX       NA    NA    NA    NA   321    NA    NA
##  6 MX000017…  2010     3 TMIN       NA    NA    NA    NA   142    NA    NA
##  7 MX000017…  2010     4 TMAX       NA    NA    NA    NA    NA    NA    NA
##  8 MX000017…  2010     4 TMIN       NA    NA    NA    NA    NA    NA    NA
##  9 MX000017…  2010     5 TMAX       NA    NA    NA    NA    NA    NA    NA
## 10 MX000017…  2010     5 TMIN       NA    NA    NA    NA    NA    NA    NA
## # ... with 12 more rows, and 24 more variables: d8 <int>, d9 <lgl>,
## #   d10 <int>, d11 <int>, d12 <lgl>, d13 <int>, d14 <int>, d15 <int>,
## #   d16 <int>, d17 <int>, d18 <lgl>, d19 <lgl>, d20 <lgl>, d21 <lgl>,
## #   d22 <lgl>, d23 <int>, d24 <lgl>, d25 <int>, d26 <int>, d27 <int>,
## #   d28 <int>, d29 <int>, d30 <int>, d31 <int>
…
