Estadística Aplicada III
…
Vamos a generar unos datos con un modelo simple:

set.seed(1933)
x <- pmin(rexp(500,1/30),100)
probs <- p_1(x)
g <- ifelse(rbinom(length(x), 1, probs)==1 ,1, 2)
dat_ent <- data_frame(x = x, p_1 = probs, g = factor(g))
dat_ent %>% dplyr::select(x, g) 
#> # A tibble: 500 x 2
#>        x g    
#>    <dbl> <fct>
#> 1  0.532 1    
#> 2 25.4   1    
#> 3 37.5   1    
#> 4 20.9   1    
#> 5 70.9   2    
#> 6 14.8   1    
#> # ... with 494 more rows
…
